NAME,VMAG,JMAG,DIST,X,Y,Z,TY,SPEC,Mv,Radius
Sun,-26.72,-27.9,0,0,0,0,S,G2 V,4.85,1
Proxima Centauri,11.05,5.36,4.247,2.945,-3.056,-0.143,S,M5 Ve,15.48,0.14
Alpha Centauri A,0.01,-1.15,4.365,3.126,-3.047,-0.052,S,G2 V,4.38,1.27
Alpha Centauri B,1.34,-0.01,4.365,3.125,-3.047,-0.052,S,K0 V,5.71,0.96
Barnard's star,9.57,5.24,5.963,4.958,2.98,1.449,S,M3.5 V,13.26,0.17
Luhman 16 A,23.25,10.73,6.503,1.697,-6.249,0.6,BD,L7.5,26.75,1.01
Luhman 16 B,24.07,11.22,6.503,1.697,-6.249,0.6,BD,T0.5,27.57,1.02
Wolf 359,13.53,7.09,7.856,-1.916,-3.938,6.522,S,M5.5 V,16.62,0.16
Lalande 21185,7.47,4.2,8.305,-3.439,-0.308,7.553,S,M2 V,10.44,0.49
Sirius A,-1.43,-1.36,8.659,-5.809,-6.28,-1.338,S,A1 V,1.45,2.09
Luyten 726-8 A,12.61,6.28,8.817,-2.171,0.171,-8.544,S,M5.5 V,15.45,0.17
Luyten 726-8 B,13.06,,8.817,0.07,0.171,-8.544,S,M6 V,15.9,0.31
Ross 154,10.44,6.22,9.706,9.365,1.873,-1.733,S,M3.5 Ve,13.07,0.15
Ross 248,12.29,6.88,10.306,-3.37,9.265,-3.003,S,M5.5 V,14.79,0.24
Epsilon Eridani,3.73,2.23,10.502,-6.753,-1.917,-7.811,S,K2 V,6.19,0.895
Lacaille 9352,7.34,4.34,10.724,4.352,0.388,-9.794,S,M1 V,9.76,0.63
Ross 128,11.16,6.51,11.008,0.014,-5.577,9.49,S,M4 V,13.52,0.28
EZ Aquarii A,13.03,6.55,11.109,4.123,4.432,-9.315,S,M5 V,15.37,0.15
EZ Aquarii B,13.27,,11.109,0.31,4.432,-9.315,S,M V,15.61,0.1
EZ Aquarii C,15.07,,11.109,0.31,4.432,-9.315,S,M V,17.41,0.1
61 Cygni A,5.2,3.12,11.404,1.516,11.244,-1.156,S,K5 V,7.48,0.6
61 Cygni B,6.03,3.55,11.404,1.517,11.243,-1.158,S,K7 V,8.31,0.74
Procyon A,0.37,-0.39,11.437,-9.27,-6.183,2.577,S,F5 IV-V,2.65,1.9
Procyon B,10.82,,11.437,0.22,-6.183,2.577,WD,DQZ,13.1,0.1
HD 173739,8.9,5.19,11.491,0.13,10.478,4.716,S,M3 V,11.17,0.35
HD 173740,9.69,5.72,11.491,0.131,10.478,4.716,S,M3.5 V,11.96,0.29
Groombridge 34 A,8.08,5.25,11.619,-4.949,9.849,-3.677,S,M1 V,10.32,0.38
Groombridge 34 B,11.06,6.79,11.62,-4.951,9.849,-3.676,S,M3.5 V,13.3,0.18
DX Cancri,14.9,8.24,11.68,-9.428,-2.885,6.262,S,M6 V,17.13,0.88
Epsilon Indi A,4.68,2.89,11.867,7.259,-3.203,-8.825,S,K5 V,6.88,0.79
Epsilon Indi B,24.12,12.23,11.813,7.207,-3.191,-8.799,BD,T1,26.33,0.9
Epsilon Indi C,,,11.813,0.11,7.207,-8.799,BD,T6,30,0.1
Tau Ceti,3.49,2.14,11.906,-3.369,0.408,-11.412,S,G8.5 V,5.68,0.81
Luyten 372-58,13.09,7.52,11.984,-2.249,-6.869,-9.559,S,M5 V,15.26,0.15
YZ Ceti,12.1,7.26,12.122,-2.04,1.192,-11.89,S,M4 Ve,14.25,0.3
Luyten's star,9.85,5.71,12.349,-10.262,-6.499,2.224,S,M3.5 V,11.96,0.3
Teegarden's star,15.14,8.39,12.497,-9.391,3.369,-7.526,S,M6.5 V,17.22,0.12
Kapteyn's star,8.85,5.82,12.831,-3.46,-9.787,-7.542,S,M2 VI,10.88,0.45
Lacaille 8760,6.67,4.05,12.947,9.252,0.631,-9.036,S,K9 V,8.68,0.8
DENIS J184504.9-635747 A,17.4,9.54,13.064,10.53,-5.713,-5.211,BD,M8.5 V,19.39,0.08
DENIS J184504.9-635747 B,13.29,,13.05,0.06,-5.707,-5.205,BD,T5.5,15.28,0.05
Kruger 60 A,9.79,5.58,13.078,-3.316,12.651,-0.001,S,M3 V,11.77,0.38
Kruger 60 B,11.41,,13.078,0.07,12.651,-0.001,S,M4 V,13.39,0.2
DENIS J104814.7-395606,17.39,9.54,13.193,1.904,-12.468,3.872,S,M8.5 V,19.36,1.07
Ross 614 A,11.18,6.38,13.424,-11.202,-7.255,-1.447,S,M4.5 Ve,13.11,0.27
Ross 614 B,14.26,,13.424,0.36,-7.255,-1.447,S,M V,16.19,0.38
WISEP J072227.27-054029.9,16.52,,13.433,0.99,-8.883,1,BD,T9,18.45,0.1
Wolf 1061,10.1,5.95,14.05,12.845,0.752,5.643,S,M3.5 V,11.93,0.34
van Maanen's Star,12.4,11.69,14.072,-3.996,6.424,-11.865,WD,DZ7,14.23,0.1
Wolf 424 A,13.25,7,14.112,1.448,-4.264,13.375,S,M5 V,15.07,0.17
Wolf 424 B,13.24,,14.595,0.21,-4.41,13.832,S,M V,14.99,0.28
HD 225213,8.54,5.33,14.175,3.311,-0.977,-13.748,S,M1.5 V,10.35,0.45
TZ Arietis,12.31,7.51,14.578,-8.48,5.369,-10.573,S,M4 V,14.06,0.14
BD+68 946,9.17,5.34,14.84,-1.883,12.448,7.856,S,M3 V,10.88,0.4
CD-46 11540,9.37,5.71,14.849,14.102,-4.31,-1.752,S,M2.5 V,11.08,0.31
LHS 292,15.73,8.86,14.871,-1.749,-11.036,9.813,S,M6.5 V,17.44,0.15
Luyten 145-141,11.5,11.19,15.123,6.625,-13.574,-0.753,WD,DQ6,13.17,0.1
V1581 Cygni A,13.46,7.79,15.203,2.905,14.752,2.25,S,M5.5 V,15.12,0.24
V1581 Cygni B,16.75,8.28,15.203,2.905,14.752,2.25,S,M V,18.41,0.06
V1581 Cygni C,14.01,8.28,15.2,2.905,14.75,2.249,S,M6 V,15.67,0.34
Ross 780,10.18,5.93,15.239,4.743,6.071,-13.148,S,M3.5 V,11.83,0.36
Luyten 143-23,13.92,8.49,15.759,4.928,-14.958,-0.555,S,M5.5 V,15.5,0.15
2MASS J23400761+4625080,13.66,,15.794,8.38,14.325,-4.008,BD? T?,,15.23,0.1
DENIS J025503.3-470049,22.92,13.25,15.877,-1.35,-8.144,-13.563,BD,L7.5 V,24.48,1.1
Groombridge 1618,6.59,3.97,15.886,-9.453,2.38,12.543,S,K7 V,8.15,0.84
Lalande 21258 A,8.77,5.54,15.997,-7.099,1.444,14.263,S,M1 V,10.32,0.49
Lalande 21258 B,14.44,8.74,16.002,-7.099,1.444,14.268,S,M5.5 V,15.99,0.13
AD Leonis,9.29,5.45,16.194,-7.549,-5.577,13.197,S,M2.5 Ve,10.81,0.42
HD 204961,8.66,5.35,16.201,10.984,-2.101,-11.722,S,M1.5 V,10.18,0.59
CD-44 11909,10.95,6.54,16.333,15.741,-3.929,-1.887,S,M4 V,12.45,0.32
Omicron2 Eridani A,4.43,2.93,16.34,-12.033,-4.56,-10.071,S,K0.5 V,5.93,0.81
Omicron2 Eridani B,9.52,9.85,16.333,-12.029,-4.563,-10.063,WD,DA4,11.02,1.4
Omicron2 Eridani C,11.24,6.75,16.353,-12.044,-4.568,-10.075,S,M4 V,12.74,0.27
EV Lacertae,10.22,6.11,16.476,-2.954,15.775,-3.726,S,M3.5 V,11.7,0.31
70 Ophiuchi A,4.21,2.34,16.707,14.2,8.163,3.293,S,K0 V,5.66,1.02
70 Ophiuchi B,6.01,,16.707,0.05,8.163,3.292,S,K5 V,7.46,0.64
Altair,0.77,0.35,16.731,11.115,12.234,-2.591,S,A7 IV-Vn,2.22,1.81
EI Cancri A,14.06,7.79,16.8,-11.979,-6.249,9.985,S,M5.5 V,15.5,0.17
EI Cancri B,14.92,,16.75,0.06,-6.231,9.955,S,M7 V,16.37,24
G 99-49,11.31,6.91,16.986,-15.208,-6.951,-2.991,S,M3.5 V,12.73,0.21
DENIS J081730.0-615520,13.61,,17.002,0.22,-16.376,-4.228,BD,T6,15.02,0.1
LHS 2459,10.79,6.72,17.137,-8.104,10.814,10.538,S,M3.5 V,12.19,0.28
WISEA J154045.67-510139.3,8.96,,17.374,0.03,-9.182,1.032,S,M7 V,10.33,0.2
WISEA J093935.93-244838.9,15.61,,17.414,2.46,-15.891,6.089,BD,T8 V,16.97,0.1
LHS 1723,12.22,7.62,17.531,-13.929,-6.923,-8.087,S,M4 V,13.57,0.18
Wolf 498,8.46,5.18,17.727,5.298,-0.785,16.898,S,M1 V,9.78,0.54
Stein 2051 A,11.04,6.62,17.992,-15.151,9.43,2.29,S,M4 V,12.33,0.32
Stein 2051 B,12.43,13.72,17.993,-15.152,9.43,2.291,WD,DC5,13.72,1.3
WISEP J111448.80-261828.2,15.86,,18.201,0.78,-15.352,9.573,BD,T7.5,17.13,0.1
Wolf 294,10.02,6.1,18.215,-17.56,-0.901,4.756,S,M3 V,11.29,0.43
LP 816-60,11.5,7.09,18.331,13.106,7.617,-10.308,S,M3.5 V,12.75,0.28
WISEA J183537.82+325945.4,18.27,10.27,18.554,8.406,15.577,5.562,S,M8.5 V,19.5,1.07
Wolf 1453,7.95,4.83,18.605,-15.64,-7.947,-6.194,S,M1 V,9.17,0.8
WISE J041521.21-093500.6,15.7,,18.617,0.97,-5.644,-11.701,BD,T8,16.92,0.1
HD 42581 A,8.14,5.1,18.791,-11.786,-13.374,-5.944,S,M1.5 V,9.34,0.77
HD 42581 B,14.01,,18.777,0.03,-13.365,-5.939,BD,T6 V,15.21,0.1
Sigma Draconis,4.67,3.42,18.8,-3.419,17.107,7.005,S,G9 V,5.87,0.8
Ross 47,11.57,7.12,18.889,-18.114,-4.418,-3.024,S,M4 V,12.76,0.3
Lalande 27173 A,5.64,3.83,19.199,15.009,-5.99,10.366,S,K4 V,6.79,0.86
Lalande 27173 B,8.3,4.55,19.184,14.996,-5.986,10.359,S,M1.5 V,9.45,0.81
Lalande 27173 C,9.96,,19.184,0.05,-5.986,10.359,S,M,11.11,0.846
Lalande 27173 D,15.32,,19.184,0.05,-5.985,10.378,BD,T7.5,16.47,0.1
Luyten 205-128,10.76,6.86,19.208,16.899,-7.771,-4.794,S,M3 V,11.91,0.42
Luyten 347-14,12.23,7.66,19.273,17.464,-2.343,-7.809,S,M4 V,13.37,0.2
Lalande 46650,8.98,5.83,19.275,-0.655,10.511,-16.143,S,M1 V,10.12,0.5
Wolf 1055 A,9.1,5.58,19.293,14.658,12.495,-1.105,S,M2.5 V,10.24,0.47
Wolf 1055 B,17.45,9.91,19.305,14.669,12.5,-1.111,S,M8 V,18.59,1.1
CD-40 9712,9.31,5.65,19.3,16.764,-8.662,4.055,S,M2.5 V,10.45,0.52
Eta Cassiopeiae A,3.46,2.37,19.328,-10.379,16.216,-1.703,S,G3 V,4.6,0.96
Eta Cassiopeiae B,7.21,7.17,19.332,-10.38,16.22,-1.703,S,K7 V,8.35,0.76
Luyten 722-22 A,11.6,7.22,19.374,0.49,4.595,-18.815,S,M3.5 V,12.73,0.41
Luyten 722-22 B,14.02,,19.374,0.53,4.595,-18.815,S,M V,15.15,0.364
36 Ophiuchi A,5.07,2.52,19.414,19.266,-0.579,2.325,S,K1.5 V,6.2,0.71
36 Ophiuchi B,5.08,,19.399,0.06,-0.578,2.323,S,K1 V,6.21,5160
36 Ophiuchi C,6.32,4.16,19.419,19.277,-0.526,2.283,S,K5 V,7.45,0.73
WISEP J154151.66-225025.2,20.99,,19.525,2.51,-4.108,8.331,BD,Y0.5,22.1,0.1
Ross 882,11.19,6.58,19.533,-15.397,-11.128,4.546,S,M4 V,12.3,0.28
HD 191408 A,5.31,,19.61,0.06,1.534,-10.078,S,K2.5 V,6.41,0.65
HD 191408 B,11.5,,19.621,0.08,1.535,-10.083,S,M4 V,12.6,0.28
82 Eridani,4.26,2.99,19.705,-3.626,-10.382,-16.351,S,G8 V,5.35,0.92
Ross 986 A,12.05,6.73,19.742,-18.559,0.339,6.721,S,M4.5 V,13.14,0.27
Ross 986 B,12.45,,19.742,0.04,0.339,6.721,S,M V,13.54,0.2
Delta Pavonis,3.55,2.45,19.894,14.509,-8.456,-10.664,S,G8 IV,4.62,1.26
WISEP J013657.45+093347.0,13.46,,19.955,0.28,7.749,-15.657,BD,T2.5,14.53,0.1
WISEP J093735.61+293127.7,14.29,,19.973,0.98,-4.129,14.745,BD,T7,15.35,0.1
HD 191849,7.95,5.12,20.107,16.798,-1.527,-10.943,S,M0 V,9,0.77
LHS 455,14.22,12.71,20.259,-3.453,17.077,10.339,WD,DXP9,15.25,1.1
Wolf 1481,11.32,6.84,20.395,13.836,-5.472,13.95,S,M4 V,12.34,0.31
EQ Pegasi A,10.27,6.16,20.428,-2.363,15.667,-12.895,S,M3.5 V,11.29,0.14
EQ Pegasi B,12.21,7.1,20.397,-2.359,15.642,-12.876,S,M4.5 V,13.23,0.23
Wolf 562,10.55,6.71,20.55,15.654,-1.624,13.214,S,M3 V,11.55,0.29
HD 79210 A,7.64,4.89,20.658,-14.668,3.948,14.001,S,M0 V,8.63,0.82
HD 79210 B,7.7,4.78,20.659,-14.667,3.948,14.002,S,K7 V,8.69,0.62
LHS 2090,16.1,9.44,20.739,-14.853,-7.021,12.657,S,M6 V,17.08,0.18
HD 155876 A,9.93,5.55,20.865,5.404,15.999,12.254,S,M3 V,10.9,0.53
HD 155876 B,10.35,,20.865,0.82,15.999,12.254,S,M V,11.32,0.75
WISEP J150319.70+252525.4,13.94,,20.938,0.49,6.238,18.218,BD,T6,14.9,0.1
LP 944-20,18.69,10.73,20.962,-6.865,-10.44,-16.831,BD,M9 V,19.65,0.14
LHS 32,14.47,13.05,21.011,-17.584,-10.242,-5.23,WD,DZ9,15.42,1.1
WISE J140518.39+553421.3,21.06,,21.042,3.87,10.695,17.957,BD,Y0,22.01,0.1
GL Virginis,13.9,8.53,21.084,0.658,-6.386,20.082,S,M4.5 Ve,14.85,0.16
WISE J220905.73+271143.9,22.58,,21.123,3.67,19.317,-8.297,BD,Y1,23.52,0.1
G 202-48,10.17,6.61,21.131,1.833,15.4,14.354,S,M1.5 V,11.11,0.31
Wolf 630 A,10.69,5.27,21.184,19.392,3.785,7.64,S,M3.5 V,11.63,0.51
Wolf 630 Ba,11.29,,21.184,0.04,3.785,7.64,S,M?,12.23,1.717
Wolf 630 Bb,11.79,,21.184,0.04,3.785,7.64,S,M?,12.73,0.026
Wolf 629,11.76,7.56,21.197,19.401,3.788,7.652,S,M3.5 V,12.7,0.21
Wolf 630 C,16.92,9.78,21.184,19.402,3.774,7.622,S,M7 Ve,17.86,0.1
Luyten 100-115,12.78,7.95,21.213,6.159,-19.816,-4.399,S,M4 V,13.71,0.2
WISE J041022.71+150248.4,19.44,,21.26,2.64,0.684,-9.293,BD,T6,20.37,0.1
WISE J031325.94+780744.3,17.65,,21.318,9.8,15.566,6.335,BD,T8.5,18.57,0.1
HD 219134,5.57,3.86,21.337,-7.251,20.032,-1.191,S,K3 V,6.49,0.78
Luyten 471-42,12.75,8.17,21.733,9.959,-17.1,8.986,S,M4 V,13.63,0.17
DENIS J072003.2-084650 A,19.4,10.63,21.919,-15.752,-15.217,0.875,S,M9.5,20.26,0.75
DENIS J072003.2-084650 B,,,21.919,0.73,-15.752,0.875,BD,T5.5,65,0.1
Ksi Bootis A,4.59,2.66,22.006,9.704,4.136,19.313,S,G7 Ve,5.44,0.86
Ksi Bootis B,6.82,,22.006,0.03,4.136,19.313,S,K5 Ve,7.67,0.55
Ross 104,10.02,6.31,22.009,-7.637,-5.635,19.857,S,M4 V,10.87,0.39
Ross 619,12.83,8.42,22.08,-16.964,-11.497,8.219,S,M4.5 Ve,13.68,0.34
Ross 775 A,10.3,6.25,22.113,7.07,18.976,-8.885,S,M3 Ve,11.14,0.44
Ross 775 B,,,22.113,0.02,7.07,-8.885,S,M,0.23,0.4
LHS 6158 A,10.98,6.51,22.192,-14.354,-12.127,11.807,S,M3.5 V,11.82,0.27
LHS 6158 C,,,22.192,1.03,-14.354,11.807,S,M,0.17,0.2
BD-17 588 A,10.53,7.29,22.387,-11.09,-4.143,-19.001,S,M3,11.35,0.26
BD-17 588 B,11.78,7.11,22.409,-11.101,-4.147,-19.019,S,M3 V,12.6,0.55
Ross 671,8.64,5.36,22.398,0.902,17.581,-13.848,S,M1.5 Ve,9.46,0.43
Wolf 358,11.68,7.32,22.723,-5.976,-11.615,18.594,S,M4 V,12.46,0.64
Ross 446,9.65,6.18,22.954,-6.76,-14.156,16.757,S,M2 Ve,10.41,0.26
HD 199305,8.6,5.43,22.96,-3.413,22.272,4.417,S,M1 Ve,9.36,1.07
2MASS J21462206+3813047,12.21,7.95,22.986,0.977,22.495,-4.627,S,M5 V,12.97,0.2
LHS 3003,17.14,9.97,23.003,18.392,-9.014,10.471,S,M7 Ve,17.9,0.15
Luyten 230-188,13.58,8.75,23.182,-1.988,-16.246,-16.418,S,M4.5,14.32,0.73
LHS 546,14.69,9.15,23.408,1.405,11.884,-20.118,S,M5 Ve,15.41,0.67
HD 16160 A,5.83,4.15,23.555,-15.223,4.538,-17.392,S,K3 V,6.54,0.27
HD 16160 B,16.77,,23.555,0.06,4.538,-17.392,S,M6 V,17.48,0.2
HD 16160 C,11.66,7.33,23.56,-15.236,4.523,-17.393,S,M3.5 V,12.37,0.19
WISE J205628.91+145953.2,19.21,,23.58,2.79,19.667,-7.737,BD,Y0,19.91,0.76
Luyten 788-34,13.3,8.24,23.596,10.387,8.907,-19.224,S,M4.5 Ve,14,0.19
HD 156384 A,5.89,3.9,23.632,23.386,-3.352,0.587,S,K3 V,6.59,0.42
HD 156384 B,7.2,,23.632,0.07,-3.352,0.587,S,K5 V,7.9,0.86
HD 156384 C,10.22,6.85,23.624,23.377,-3.352,0.583,S,M1.5 V,10.92,0.7
WISEA J150747.56-162749.3,22.9,12.83,24.17,18.976,-5.4,13.961,BD,L5,23.55,0.32
Wolf 25,5.74,4.37,24.251,-6.795,11.083,-20.472,S,K2.5 V,6.38,1.81
Wolf 922,12.01,7.32,24.325,13.604,12.791,-15.59,S,M4.5 V,12.65,0.1
Beta Hydri,2.79,1.72,24.328,10.662,-15.357,-15.567,S,G0 V,3.43,1.84
G 203-47 A,13.67,7.38,24.785,7.21,18.632,14.667,S,M3.5 V,14.27,0.69
Fomalhaut A,1.16,1.06,25.126,9.981,3.729,-22.755,S,A3 Va,1.73,0.23
Fomalhaut B,6.48,4.53,24.793,10.22,2.918,-22.4,S,K4 Ve,7.08,0.18
Fomalhaut C,12.22,8.08,25.037,9.957,6.134,-22.138,S,M4 Ve,12.79,0.51
G 141-36,14.25,8.85,24.845,19.139,15.738,1.817,S,M5 V,14.84,0.2
Ross 490,9.03,5.9,24.879,7.252,-3.658,23.516,S,M1 Ve,9.62,0.85
LHS 3376,13.41,8.74,24.926,-2.321,21.906,11.664,S,M4.5 V,13.99,0.2
107 Piscium,5.24,3.83,24.932,-14.17,12.372,-16.362,S,K1 V,5.82,0.82
Luyten 499-56,11.8,7.6,25.009,14.891,1.681,-20.022,S,M3 V,12.38,7.8
Mu Cassiopeiae A,5.17,4.03,25.034,-14.355,20.221,-3.429,S,G5 Vb,5.74,2.29
Mu Cassiopeiae B,,,25.034,0.33,-14.355,-3.429,S,M,10.6,0.36
Vega,0.03,-0.18,25.045,9.069,21.839,8.252,S,A0 Va,0.6,2.29
Ross 556,10.56,6.75,25.052,-19.129,9.879,-12.809,S,M3 V,11.13,0.36
AN Sextantis,9.26,5.89,25.137,-7.899,-17.33,16.406,S,M2 V,9.83,0.3
HD 157881,7.56,4.93,25.158,21.471,9.902,8.594,S,K7 V,8.12,0.5
SIPS J1259-4336,10.53,,25.2,0.05,-19.632,8.305,S,M8 V,11.09,0.3
LP 881-64 A,15.34,9.25,25.222,2.23,1.356,-25.087,S,M6 V,15.9,0.1
LP 881-64 B,,,25.222,0.1,2.23,-25.087,S,M8.5 V,,0.1
LP 881-64 C,,,25.222,0.1,2.23,-25.087,S,M9 V,,0.1
G 192-13,7.46,,25.225,0.02,10.54,7.449,S,M4 V,8.02,0.1
HD 165222,9.36,6.16,25.241,22.625,10.491,3.894,S,M0 V,9.92,0.1
G 109-35,9.16,,25.287,0.05,-7.025,4.565,S,M5 Ve,9.71,0.1
G 227-22,8.54,,25.421,0.02,22.069,12.533,S,M5 V,9.08,0.1
G 202-45 A,10.26,6.64,25.586,4.699,17.781,17.787,S,M3 V,10.79,0.1
CD-68 47 A,9.82,6,25.702,8.366,-14.413,-19.568,S,M2.5,10.34,0.1
G 154-44,13.48,8.64,25.999,25.236,6.179,0.974,S,M4 Ve,13.97,0.1